<?xml version="1.0" encoding="utf-8"?>
<!-- Generator: Adobe Illustrator 16.0.0, SVG Export Plug-In . SVG Version: 6.00 Build 0)  -->
<!DOCTYPE svg PUBLIC "-//W3C//DTD SVG 1.1//EN" "http://www.w3.org/Graphics/SVG/1.1/DTD/svg11.dtd">
<svg version="1.1" xmlns="http://www.w3.org/2000/svg" xmlns:xlink="http://www.w3.org/1999/xlink" x="0px" y="0px" width="51px"
	 height="70.865px" viewBox="0 0 51 70.865" enable-background="new 0 0 51 70.865" xml:space="preserve">
<g id="Шар_1">
</g>
<g id="Шар_2">
	<g>
		<path fill="#808080" d="M25.598,23.679c-1.459-5.849,13.374-10.867,4.102-20.956C30.578,9.675,15.867,14.802,25.598,23.679z"/>
		<path fill="#808080" d="M42.569,27.506c-0.407,0-0.802,0.059-1.177,0.162c0.038-0.553,0.063-1.109,0.063-1.674
			c0-0.064-0.005-0.127-0.005-0.191H9.215c0,0.064-0.004,0.127-0.004,0.191c0,7.851,3.867,14.608,9.433,17.67h13.38
			c1.578-0.868,3.02-2.033,4.273-3.436c6.594-1.379,10.928-4.575,10.759-8.292C46.943,29.452,44.972,27.506,42.569,27.506z
			 M38.589,37.045c1.071-1.86,1.882-3.956,2.362-6.211c0.362-0.505,0.949-0.838,1.618-0.838c1.085,0,1.945,0.883,1.999,2.054
			C44.645,33.771,42.468,35.745,38.589,37.045z"/>
		<path fill="#808080" d="M9.047,51.573h32.572c4.431-1.223,7.527-3.104,8.305-5.268H0.743C1.52,48.469,4.616,50.351,9.047,51.573z"
			/>
	</g>
</g>
</svg>
