<?xml version="1.0" encoding="utf-8"?>
<!-- Generator: Adobe Illustrator 16.0.0, SVG Export Plug-In . SVG Version: 6.00 Build 0)  -->
<!DOCTYPE svg PUBLIC "-//W3C//DTD SVG 1.1//EN" "http://www.w3.org/Graphics/SVG/1.1/DTD/svg11.dtd">
<svg version="1.1" xmlns="http://www.w3.org/2000/svg" xmlns:xlink="http://www.w3.org/1999/xlink" x="0px" y="0px"
	 width="53.667px" height="70.865px" viewBox="0 0 53.667 70.865" enable-background="new 0 0 53.667 70.865" xml:space="preserve">
<g id="Шар_1">
</g>
<g id="Шар_2">
	<g>
		<path fill="#808080" d="M4.866,43.771c1.41-1.813,2.998-3.329,4.475-4.267c2.199-1.397,3.438-1.085,4.09-0.578
			c1.119,0.868,1.113,2.743,0.018,5.232c5.568,0.311,9.908,3.352,10.057,7.177l-0.832,0.031h19.727c0.918,0,1.668-0.749,1.668-1.667
			l0.023-0.537h0.002c0-1.895-0.303-3.725-0.854-5.458l2.357-1.563l-0.805-1.213l2.875-1.907c0.061,0.134,0.117,0.269,0.201,0.396
			c0.865,1.358,2.668,1.76,4.027,0.894c1.357-0.865,1.758-2.669,0.893-4.028c-0.645-1.009-1.807-1.488-2.92-1.311
			c0.631-0.936,0.689-2.189,0.045-3.2c-0.863-1.358-2.668-1.758-4.025-0.894c-1.359,0.866-1.76,2.67-0.895,4.027
			c0.125,0.196,0.273,0.365,0.434,0.521l-2.975,1.975l-0.783-1.178l-1.363,0.902l-0.482,0.321l-1.248,0.828
			c-1.303-0.402-2.664-0.619-4.066-0.619c-4.336,0-8.467,2.089-11.043,5.586l-1.342-0.988c2.893-3.921,7.521-6.264,12.385-6.264
			c1.615,0,3.189,0.253,4.689,0.731c-3.914-4.326-9.824-7.082-16.441-7.082c-11.781,0-21.332,8.738-21.334,19.521v0.539
			c0,0.223,0.047,0.432,0.125,0.623C1.868,48.48,3.071,46.082,4.866,43.771z"/>
		<path fill="#808080" d="M3.138,51.369l18.695-0.003c-0.145-3.07-4.316-5.566-9.326-5.566c-0.066,0-0.135,0.004-0.199,0.006
			l-1.604,0.042l0.68-1.265c1.33-2.472,1.396-4.052,1.023-4.342c-0.176-0.136-0.854-0.17-2.174,0.67
			c-1.318,0.838-2.756,2.215-4.049,3.881C4.011,47.593,3.093,50.129,3.138,51.369"/>
	</g>
</g>
</svg>
