<?xml version="1.0" encoding="utf-8"?>
<!-- Generator: Adobe Illustrator 16.0.0, SVG Export Plug-In . SVG Version: 6.00 Build 0)  -->
<!DOCTYPE svg PUBLIC "-//W3C//DTD SVG 1.1//EN" "http://www.w3.org/Graphics/SVG/1.1/DTD/svg11.dtd">
<svg version="1.1" xmlns="http://www.w3.org/2000/svg" xmlns:xlink="http://www.w3.org/1999/xlink" x="0px" y="0px"
	 width="53.417px" height="70.865px" viewBox="0 0 53.417 70.865" enable-background="new 0 0 53.417 70.865" xml:space="preserve">
<g id="Шар_1">
</g>
<g id="Шар_2">
	<g>
		<path fill="#D7D9DB" d="M24.606,35.332c-0.475,0-1.027-0.09-1.531-0.124c-0.338,0.413-0.686,0.825-1.059,1.227
			c-1.971,2.131-4.193,3.822-6.461,4.951h35.508c0.096-0.447,0.346-0.943,0.043-1.257c-0.467-0.478-2.121-0.458-2.668-0.895
			c-0.551-0.442-0.094-1.421-0.721-1.815c-0.631-0.398-2.229-0.139-2.932-0.483c-0.393-0.193-0.551-0.593-0.744-0.96h1.234h3.826
			v-0.209v-1.945h-3.695l2.941-2.941l-1.523-1.523L43.882,32.3v-3.697h-2.152v4.502v1.082v0.267l-0.879,0.878
			c-0.186-0.001-0.363-0.016-0.516-0.057c-0.822-0.224-1.203-1.215-2.07-1.367c-0.082-0.015-0.166-0.021-0.254-0.021
			c-0.779,0-1.744,0.519-2.533,0.519c-0.049,0-0.094-0.002-0.141-0.006c-0.883-0.074-1.686-0.965-2.598-0.965
			c-0.914,0-1.717,0.891-2.6,0.965c-0.047,0.004-0.092,0.006-0.141,0.006c-0.787,0-1.752-0.519-2.533-0.519
			c-0.086,0-0.17,0.006-0.252,0.021c-0.871,0.152-1.25,1.144-2.074,1.367C24.981,35.316,24.8,35.332,24.606,35.332z"/>
		<path fill="#D7D9DB" d="M12.054,41.386l0.934-0.925c0.031-0.007,0.063-0.02,0.094-0.028c0.371-0.103,0.75-0.23,1.133-0.374
			c1.457-0.554,2.973-1.415,4.443-2.55c0.045-0.034,0.088-0.069,0.133-0.105c0.525-0.412,1.047-0.851,1.555-1.332
			c0.371-0.351,0.734-0.714,1.09-1.099c0.566-0.61,1.08-1.239,1.555-1.875c2.648-3.548,3.861-7.36,3.313-10.113L12.323,36.962
			c-0.045,0.04-0.094,0.075-0.139,0.119l-12.193,12.08l2.092,2.093l8.988-8.896L12.054,41.386z"/>
		<rect x="13.309" y="43.54" fill="#D7D9DB" width="39.108" height="5.393"/>
	</g>
</g>
</svg>
