<?xml version="1.0" encoding="utf-8"?>
<!-- Generator: Adobe Illustrator 16.0.0, SVG Export Plug-In . SVG Version: 6.00 Build 0)  -->
<!DOCTYPE svg PUBLIC "-//W3C//DTD SVG 1.1//EN" "http://www.w3.org/Graphics/SVG/1.1/DTD/svg11.dtd">
<svg version="1.1" xmlns="http://www.w3.org/2000/svg" xmlns:xlink="http://www.w3.org/1999/xlink" x="0px" y="0px"
	 width="61.333px" height="70.865px" viewBox="0 0 61.333 70.865" enable-background="new 0 0 61.333 70.865" xml:space="preserve">
<g id="Шар_1">
</g>
<g id="Шар_2">
	<g>
		<path fill="#808080" d="M14.604,44.886c-0.064-0.313-0.098-0.634-0.098-0.964c0-2.679,2.18-4.858,4.857-4.858
			c0.131,0,0.262,0.009,0.389,0.02c-0.047-0.261-0.078-0.526-0.08-0.8c-0.008-1.254,0.473-2.437,1.354-3.33
			c0.846-0.857,1.967-1.343,3.166-1.388c-0.057-0.284-0.09-0.577-0.092-0.876c-0.01-1.254,0.473-2.437,1.354-3.329
			c0.881-0.893,2.059-1.389,3.311-1.397c1.658,0,3.111,0.852,3.955,2.132c0.123,0.187,0.232,0.382,0.324,0.585
			c0.281,0.594,0.443,1.252,0.447,1.948c0.002,0.663-0.131,1.304-0.387,1.895c-0.256-0.135-0.531-0.242-0.813-0.321
			c-0.066-0.019-0.137-0.035-0.203-0.051c-0.168-0.038-0.336-0.069-0.51-0.086c-0.066-0.006-0.133-0.006-0.195-0.01
			c0.232-0.432,0.367-0.911,0.365-1.416c-0.012-1.618-1.336-2.933-2.953-2.933c-0.809,0.005-1.549,0.317-2.102,0.878
			c-0.553,0.562-0.855,1.305-0.85,2.093c0.002,0.441,0.109,0.856,0.287,1.231c0.781,0.318,1.453,0.841,1.959,1.497
			c0.035,0.047,0.072,0.094,0.109,0.143c0.201,0.288,0.375,0.599,0.51,0.929c0.115,0.277,0.203,0.567,0.264,0.868
			c0.027,0.13,0.047,0.261,0.064,0.394c0.014,0.159,0.025,0.32,0.025,0.483c0.006,0.763-0.172,1.499-0.51,2.161
			c-0.238-0.167-0.494-0.312-0.762-0.428c-0.156-0.067-0.318-0.125-0.482-0.173c-0.078-0.023-0.156-0.042-0.232-0.06
			c-0.049-0.01-0.094-0.024-0.143-0.034c0.078-0.139,0.148-0.28,0.205-0.43c0.115-0.324,0.184-0.668,0.182-1.024
			c-0.002-0.359-0.078-0.698-0.199-1.016c-0.025-0.071-0.053-0.141-0.084-0.209c-0.393-0.832-1.152-1.458-2.074-1.647
			c-0.193-0.04-0.391-0.061-0.594-0.061c-0.809,0.005-1.549,0.317-2.102,0.879c-0.555,0.561-0.857,1.304-0.854,2.092
			c0.006,0.542,0.166,1.042,0.426,1.478c0.477,0.284,0.902,0.643,1.256,1.067c0.041,0.049,0.076,0.101,0.115,0.149
			c0.252,0.328,0.467,0.685,0.631,1.071c0.002,0.007,0.004,0.015,0.01,0.022c0.115,0.28,0.207,0.573,0.27,0.876
			c0.064,0.319,0.102,0.649,0.102,0.987c0,0.729-0.168,1.419-0.457,2.041c-0.252-0.137-0.525-0.242-0.809-0.318
			c-0.275-0.075-0.563-0.118-0.859-0.129c-0.023-0.001-0.045-0.003-0.068-0.003c0.014-0.025,0.027-0.051,0.041-0.076
			c0.252-0.45,0.408-0.962,0.408-1.514c0-0.364-0.074-0.708-0.189-1.033c-0.061-0.173-0.137-0.337-0.229-0.494
			c-0.016-0.029-0.027-0.06-0.047-0.088c-0.326-0.534-0.803-0.963-1.379-1.222c-0.391-0.175-0.816-0.277-1.271-0.277
			c-1.719,0-3.115,1.397-3.115,3.115c0,0.271,0.047,0.53,0.113,0.781c0.1,0.386,0.27,0.741,0.496,1.053
			c0.803,0.224,1.521,0.651,2.088,1.23c0.002,0.003,0.008,0.007,0.01,0.011c0.266,0.27,0.494,0.572,0.688,0.899
			c0.156,0.263,0.285,0.542,0.389,0.834c0.168,0.485,0.264,1.003,0.264,1.545c0,0.786-0.195,1.526-0.539,2.178
			c0.623,0.44,1.383,0.702,2.205,0.702c1.541,0,2.863-0.913,3.473-2.225c0.604,1.312,1.928,2.225,3.469,2.225
			c0.916,0,1.756-0.323,2.414-0.86c0.242-0.196,0.453-0.423,0.641-0.671c0.262-0.35,0.471-0.745,0.604-1.173
			c0.162,1.475,1.4,2.632,2.918,2.632c1.219,0,2.266-0.742,2.719-1.797c0.15-0.355,0.234-0.745,0.234-1.155
			c0-0.506-0.139-0.975-0.365-1.392c-0.113-0.212-0.25-0.41-0.41-0.586c-0.541-0.594-1.313-0.974-2.178-0.974
			c-0.061,0-0.121,0.015-0.184,0.019c-0.152,0.009-0.303,0.021-0.445,0.053c-0.301,0.066-0.576,0.184-0.834,0.332
			c-0.598,0.344-1.059,0.885-1.301,1.54c-0.025-0.453-0.123-0.886-0.291-1.284c-0.023-0.055-0.053-0.107-0.078-0.161
			c-0.109-0.227-0.24-0.441-0.391-0.641c0.617-0.702,1.439-1.216,2.373-1.453c0.283-0.072,0.578-0.117,0.877-0.135
			c0.092-0.005,0.182-0.014,0.273-0.014c0.252,0,0.492,0.025,0.732,0.063c0.096,0.015,0.191,0.031,0.285,0.052
			c0.684,0.151,1.309,0.452,1.842,0.865c0.795-1.219,2.139-2.044,3.676-2.128c0.016-0.115,0.035-0.228,0.035-0.346
			c0-0.369-0.074-0.718-0.191-1.047c-0.031-0.088-0.064-0.176-0.102-0.26c-0.252-0.542-0.648-1-1.15-1.322
			c-0.486-0.316-1.066-0.504-1.689-0.504c-0.979,0-1.842,0.46-2.42,1.165c-0.139-0.275-0.305-0.532-0.502-0.766
			c-0.188-0.222-0.398-0.421-0.629-0.598c0.891-0.948,2.148-1.545,3.551-1.545c0.85,0,1.645,0.219,2.342,0.601
			c0.145,0.079,0.283,0.165,0.414,0.258c0.061,0.039,0.113,0.083,0.166,0.125c0.555,0.415,1.018,0.939,1.352,1.547
			c0.004,0.006,0.008,0.011,0.01,0.017c0.105,0.193,0.195,0.397,0.275,0.605c0.201,0.537,0.318,1.116,0.318,1.723
			c0,0.196-0.014,0.386-0.035,0.576c1.424,0.476,2.549,1.615,3,3.053c2.02-0.146,3.615-1.826,3.615-3.883
			c0-1.603-0.971-2.979-2.355-3.577c0.357-0.587,0.568-1.275,0.564-2.014c-0.012-1.393-0.768-2.603-1.887-3.265
			c1.279-1.052,2.857-1.765,4.619-1.968c2.15-0.248,4.303,0.293,6.072,1.52l0.992-1.433c-1.434-0.994-3.082-1.601-4.791-1.804
			l2.607-1.791l4.525-3.109l-3.316-0.103l0.742-2.464l0.869-2.879l-2.928,0.688l-1.393,0.327l-2.547-4.744l-2.834,4.576v0.001
			l-1.371-0.413l-2.879-0.868l0.688,2.93l0.588,2.503L43.024,25.7l4.326,3.383l2.82,2.206c-1.473,0.305-2.82,0.907-3.99,1.739
			c0.018-0.159,0.033-0.319,0.031-0.482c-0.016-2.112-1.738-3.812-3.85-3.799c-1.48,0.01-2.758,0.86-3.385,2.096
			c-0.643-1.228-1.93-2.063-3.412-2.053c-0.805,0.005-1.551,0.261-2.166,0.691c0.207-0.774,0.375-1.565,0.492-2.375l0.029-0.205
			c0.035-0.342,0.037-0.687,0.006-1.025c-0.184-1.987-1.441-3.673-3.26-4.422c0.332-2.007,0.373-4.18,0.121-6.466
			c-0.014-0.131-0.035-0.261-0.053-0.39l-0.107-0.78l-3.846,0.353l0.07,0.593c0.104,0.862,0.152,1.672,0.152,2.476
			c0,11.307-9.195,20.505-20.504,20.505c-0.832,0-1.674-0.051-2.502-0.153l-0.281-0.035l-3.105,3.106l0.559,0.399
			c3.551,2.53,7.723,3.868,12.064,3.868C13.688,44.932,14.147,44.916,14.604,44.886z"/>
		<path fill="#808080" d="M43.659,46.377c-0.135-0.072-0.273-0.134-0.42-0.185c-0.285-0.1-0.586-0.163-0.904-0.168
			c-0.02,0-0.039-0.007-0.059-0.007c-0.537,0-1.031,0.155-1.465,0.405c-0.105,0.08-0.213,0.15-0.326,0.218
			c-0.4,0.307-0.727,0.706-0.926,1.174c0.014,0.024,0.031,0.047,0.043,0.07c0.143,0.26,0.26,0.535,0.352,0.821
			c0.143,0.451,0.223,0.929,0.223,1.426c0,0.279-0.031,0.55-0.076,0.816c0.541,0.594,1.311,0.973,2.176,0.973
			c1.627,0,2.953-1.324,2.953-2.952c0-0.742-0.285-1.414-0.74-1.933C44.255,46.769,43.978,46.546,43.659,46.377z"/>
		<path fill="#808080" d="M18.017,48.587c-0.473-0.676-1.225-1.133-2.086-1.231c-0.109-0.012-0.217-0.033-0.33-0.033
			c-1.627,0-2.953,1.324-2.953,2.952s1.326,2.952,2.953,2.952c1.41,0,2.588-0.995,2.881-2.317c0.043-0.205,0.072-0.417,0.072-0.635
			c0-0.52-0.146-1-0.383-1.425C18.122,48.762,18.075,48.671,18.017,48.587z"/>
	</g>
</g>
</svg>
