<?xml version="1.0" encoding="utf-8"?>
<!-- Generator: Adobe Illustrator 16.0.0, SVG Export Plug-In . SVG Version: 6.00 Build 0)  -->
<!DOCTYPE svg PUBLIC "-//W3C//DTD SVG 1.1//EN" "http://www.w3.org/Graphics/SVG/1.1/DTD/svg11.dtd">
<svg version="1.1" xmlns="http://www.w3.org/2000/svg" xmlns:xlink="http://www.w3.org/1999/xlink" x="0px" y="0px"
	 width="48.171px" height="70.865px" viewBox="0 0 48.171 70.865" enable-background="new 0 0 48.171 70.865" xml:space="preserve">
<g id="Шар_1">
</g>
<g id="Шар_2">
	<g>
		<path fill="#808080" d="M25.957,28.299h4.332c0.367-1.33,0.598-2.729,0.596-4.177c-0.002-6.322-4.301-11.833-6.166-13.926
			c-1.449,1.63-4.359,5.334-5.584,9.873c1.922,2.623,3.068,5.578,3.752,8.229h0.619l-0.008-8.853l2.451-0.001L25.957,28.299z"/>
		<path fill="#808080" d="M16.637,28.278l0.02,0.021h1.248h1.264h1.16c-0.412-1.459-0.975-2.989-1.748-4.471
			c-0.32-0.616-0.684-1.219-1.08-1.808c-0.318-0.469-0.652-0.932-1.023-1.372c-0.285-0.338-0.582-0.669-0.898-0.985
			c-4.795-4.794-12.244-5.67-15.117-5.827c0.154,2.783,0.979,9.686,5.221,14.463h7.508l-6.617-6.618l1.732-1.732L16.637,28.278z"/>
		<path fill="#808080" d="M15.945,51.573h21.008v-2.46H36.92c6.127-3.951,10.311-10.654,10.789-18.364H32.082h-1.324h-1.318h-3.48
			h-2.451h-0.09H22.16h-1.256h-0.887h-0.912h-0.4h-1.324h-1.74H8.453H6.436H5.158c0.012,0.181,0.033,0.357,0.049,0.536
			c0.635,7.483,4.756,13.971,10.742,17.828h-0.004V51.573z"/>
	</g>
</g>
</svg>
